{
    "fluentMethods": true,
    "relationships": [],
    "fields": [
        {
            "fieldName": "name",
            "fieldType": "String",
            "fieldValidateRules": [
                "required"
            ]
        }
    ],
    "changelogDate": "20171118055509",
    "dto": "mapstruct",
    "service": "no",
    "entityTableName": "ref_gender",
    "jpaMetamodelFiltering": false,
    "pagination": "no"
}
